[
    {"publicKey": "2c1b8a7afc9343e76537f3d67d609de2945bcf1dce07b0e05998ed013ebf3dd2", "balance": 76762056889132},
    {"publicKey": "fd97fda2d9e3044d84fc58839a846b882f1e8288625afb4ce88e8ba24124edfa", "balance": 72341962952},
    {"publicKey": "ec36f52fe419b26ec257846bedcbb740cd6d944f2c9f0505ff3aa0eaa0927fd6", "balance": 14468391867124},
    {"publicKey": "9be77989b2c99e96e309a537f3c0f6ef26e6838f9319b5f60b655ebe75fc807f", "balance": 79576159247993},
    {"publicKey": "3f7d1ec46600cbef4dd417f6eca7f726d749b83f4bba15a5aca15f7055e16314", "balance": 7197301894166},
    {"publicKey": "3084f07e648246414b1eb1391673dcc3f602fe78ba3d80136a1b068596deb365", "balance": 81933223267287},
    {"publicKey": "113956ed9f8839e1805c49687eec9b26b969293978a5c9d4d8b25b65cbfad612", "balance": 70629869829325},
    {"publicKey": "bcc8d4a3d132f2402a0e3a7a5d5cf26b107bbc9ec154e0831f19c03d25c8fee6", "balance": 2893678518108},
    {"publicKey": "330c57146a759d8d9235e5d3d0b01e7c04dd701531f42a6e64da2d696fb908f6", "balance": 1271330061025008},
    {"publicKey": "f9f6c458ee1eb07f5ef0b8af623e60f1edeb259adb96274b1ff889191587a8e0", "balance": 13831682035641},
    {"publicKey": "d216aa504571ebfad9777bcf225ac8007c89ea9465b0ccc65e2051d992c4de38", "balance": 72349195702176},
    {"publicKey": "3152f925093e971f78e60757635c0bffba08268e5ffbeb6221aad77729080404", "balance": 57217428758195},
    {"publicKey": "f6e50b9da983a1f118caa6e6f8c878b3366f209e1334d42f10134df15f202e89", "balance": 62117632188736},
    {"publicKey": "22834484f957d6ac56ec64a0f4ac6190169bb607b89a71dc688c77799e1e7aad", "balance": 253196870334463},
    {"publicKey": "d822e55d5b8d5e2ba2e063aa4d493c46cf237a97d696d08a0f3d4c84f22e35a9", "balance": 61490667786393},
    {"publicKey": "a785b333ea677757d7b582369fb513dd942688ef6d831bea3e67f692ef1730cb", "balance": 13054107214818},
    {"publicKey": "7cc4ce2473e76f2c2d145a26e405ac240c33b37d38b291a86d9e9d4b60adfdb3", "balance": 94044551838537},
    {"publicKey": "3dc2bf871856a238f803786d358e8949daa2ecb6876c529e84d38fa638762222", "balance": 15929700242189},
    {"publicKey": "0a7cb49e5441967bc08d2a240b149d211e6b29a9ad265fc9dfbaf19d5b569752", "balance": 21483151598193},
    {"publicKey": "638bb96890163d8c70743b27eb8c0b87183cf19d36d791e368f4ea3e5d0dbcfa", "balance": 34965282093815},
    {"publicKey": "23a0145d73af05d88569c97c0fa9158540c3a0c40afe0fcaacdc80376a3cd9d9", "balance": 675191654165},
    {"publicKey": "c4fdfeccefb7d88f48be6fa7c44db564985c639ea598daca1aced3c9b28c7adf", "balance": 723273498762},
    {"publicKey": "2ec1730a3f5decddbc22660d2cac065a247f6f4064ed3284626dcb8ac5679d91", "balance": 66458149965899},
    {"publicKey": "d0326d1c53728a69f180419d109d912e5d1af04af891c305e36b7023cc921187", "balance": 1465344731661},
    {"publicKey": "f701d2e6f4a6e26622656b5a5efb5bf4aa616ba976ccc0c4f02f29db0043d071", "balance": 2123116042603},
    {"publicKey": "2ba422d31bdac57568039d8b6ca09ee39c97e2c9fb0acd105ff96d0f4e115a73", "balance": 66892201743616},
    {"publicKey": "e5615cacc9a8c1de98abc0013606f632e7f85e02fe9690177efb988dc8ad5fe8", "balance": 120569938254534},
    {"publicKey": "2519c32e2f0ba932133465df5dac52e6367d950458b5a77ba987db545f82c891", "balance": 58749631533473},
    {"publicKey": "c02edfbdbca8f841b9a554823110475629bf8d6965efcdc4ce431c04b782eaf3", "balance": 18599118675144},
    {"publicKey": "22bc560a0dc76408bba46d5a69ce8890a5eb60d77835e3dd617553300a34060b", "balance": 16956956116117},
    {"publicKey": "2fd41b0b175fc88e798a1394d64fe297cdd2c5281a3e9a2bfddded4b1108f7a5", "balance": 10784784385714},
    {"publicKey": "ab0d2ec6eb521cc422b9eff53ea817d7348165e73150aefa4f61a61203d0876e", "balance": 184616689455343},
    {"publicKey": "2949d9783fd9c57e03a5a575999483ce6bea6e4fbb80fde12a64d6c7aba4cce6", "balance": 69930564187},
    {"publicKey": "a0c59c61341565b7bd33ea3f408395665c4fc67021d6181f0fb2d137ffb65271", "balance": 1067043953552634},
    {"publicKey": "fb60a73c14a6b197a9b17a27e847ba50c7ff069baf1a84c7364395840761ca49", "balance": 12050965328540},
    {"publicKey": "0dc3efbd165a7642a383be25438b46414a0e8b59eb4104288fb82fc991f168f7", "balance": 1772270018211},
    {"publicKey": "1c67b72dc907feff3aafb511e581bedc28a4440e48477374fb556d133d411398", "balance": 2531968703345},
    {"publicKey": "d978a81eacfb33cb11f8c24168da6c1c725760065ab9fc319ae79becb46c1851", "balance": 4979608874813},
    {"publicKey": "50c09ff6c3109d530b3b6ab5f0d5e08f87e41c32a0fd11dedd3acc5c141258aa", "balance": 93682842023773},
    {"publicKey": "74a3aa0044d93052755772fe84d43754c92c52aa65a85058c730b9b37b1b3fad", "balance": 175549830098542},
    {"publicKey": "888b8a669e8af30c611ed3df79b753603dd75f271aba2fbf5efda340e17510eb", "balance": 206174594415194},
    {"publicKey": "2c8c734cf5c623849b1619e79463c98718de02867f068086ba681cc664458717", "balance": 217025888858},
    {"publicKey": "effa356c2dd84b880eab89f5b5bb041d380dd1587f83dcf986d6a98d57c6ca56", "balance": 65107766657448},
    {"publicKey": "2616db759a3042c43e17e6df993cd617707f9a4c41a1d1350525c449f8410b06", "balance": 72341962952},
    {"publicKey": "f34871077cb7646d23c8298e8d1a20fdefc8807df1458cd42ee7fa398c447012", "balance": 10844060246612},
    {"publicKey": "1d0cb606a4215d1769e95ec610e67a9c6cfa1875af732a419b0c3a9e4eecd963", "balance": 45430166270433},
    {"publicKey": "f685013c3079426a875d536f4d04e1f5369732e6e380056fa3dee94187097fc8", "balance": 7219907526871},
    {"publicKey": "4f1d29ef45e4f3b0c9276692a2fb9fc903bfa4d4dc1b4bd2f3a634f223caa88f", "balance": 723419629527},
    {"publicKey": "69924d24419a4c9b1823d7dd3b373126c24a0492ebadc33b88a90febdeddd59f", "balance": 72341962952},
    {"publicKey": "afddeea98a144ba7cef85c5ba0f16ba5737a0156e253b1901d19c2310458b210", "balance": 15047126123907},
    {"publicKey": "501016ce6ed6b5a5c22fee935fc578fa45d0150453695cba8ee49a803c5b1f0c", "balance": 2469882536152338},
    {"publicKey": "30dbad62491773c26f39bc0b3309450ade29d34c5d49830656abfe75852a9b35", "balance": 7234194848432},
    {"publicKey": "48ac42818cd779ac80686b200c800d1aaa806d0e030d83ff1b730378b4a669c6", "balance": 52086213325959},
    {"publicKey": "02a54fd59aa06d7ea73c469e194a0a6e03fadf37fe5cc20373d9e37f6fa2dcf1", "balance": 361709814763604},
    {"publicKey": "a11f0507857c81fcdd5e0a06b54d018a309698cf5a599527d3a826dd197520c3", "balance": 1446839259054},
    {"publicKey": "fb2eebcff5c71a3c2ac2c8662a68310e9e909f07ee9817cce59c7b1efcfa6407", "balance": 72445918353484},
    {"publicKey": "2d7dcf7a463752d865f95857ac9f38af464e35382402b6f3c97537f18c8129da", "balance": 1406990209130312},
    {"publicKey": "6ccb43383e1e1b633e211fc84b1c496c143a26ac17c5971b2d44901bf9bc6699", "balance": 1349708116736},
    {"publicKey": "bdb26f622f53be375cee831f35fb7d6021666adab63d62e4446d3fd6ec388d48", "balance": 28015640498418},
    {"publicKey": "7f71c97a546dd72529b6509675003052114b640ff85673593d5ced6134252eda", "balance": 303836244401428},
    {"publicKey": "6115ddaef39687736d580e7f0bbbd8cfb89297390cc784463247275213a8530f", "balance": 8215104588549},
    {"publicKey": "2ca5eb1c538a5eaa32ced9eaed58d93ead1bc820df0ce6a6af393e383fc9ff93", "balance": 1329982874898124},
    {"publicKey": "bc72c7383f5d00c11d3765479da5afa28ec835133d132dd6ab0c7e0cfa0e813b", "balance": 79576159247},
    {"publicKey": "95d73b1ed48f32f8e71c3fea9f1ef08d2ae7a24da3a95b0f5564295f17c180f1", "balance": 209791692562890},
    {"publicKey": "1eecb856dfa693065492572c4dfbdf01cd8352d06217c65456d5287852eda51b", "balance": 217025888858},
    {"publicKey": "a3644cbed1548a1eb4406dfe012f481cb674f12ed855749477012d0ca072fb2e", "balance": 94790639316786},
    {"publicKey": "45be1ee2bae9666d985e5da461a467fcebfbd095a176f72bd5d9ca7620e240ab", "balance": 687248648050849},
    {"publicKey": "bbc084f41f965aadfc6b38c606e2ac3a236a1935501af42067cc945c4eeead8f", "balance": 72341962952720},
    {"publicKey": "fe7e4edc491c15a11a57f11f7fd555ea07d33b0b9b379002d2a3bfabcf132ec2", "balance": 457904927239611},
    {"publicKey": "4b6a555e09ca59f8f110066a18e232e2f67273b6443f780dfcbc126882bafde0", "balance": 5143513565938},
    {"publicKey": "83ac7eb847c65e4db8d7027fa78711f63c0fe581e3bb8fb602b76b1c9bd7ad6f", "balance": 101278748133809},
    {"publicKey": "19f461b93c545ce5acc46ca3e964be4c09f0cfdaed7123ae6573a81b4041cfbd", "balance": 3617098147636},
    {"publicKey": "5d6d481c4b5559b711ba30c9bfa35764ef429af6d5966b5446eba983a5ce2654", "balance": 361709814763},
    {"publicKey": "acfd703b6302a3702528c4a349e1745f98b701ff4b26883b855aa2903a239a48", "balance": 357116027774144},
    {"publicKey": "6794aa058dd42a375f98b7e4b78f5a9bcca210ecccdc82e7fc3e14b45b7f9f17", "balance": 1663865146465743},
    {"publicKey": "f7a604c6440200fc4d835f9a6abe78a38da762befb17a0fdbeb9b63ff714f11f", "balance": 349645827881672},
    {"publicKey": "daa1fd0b1abf7abb724cb34ae8848bb4c8bceb45ed969e4a2c69ddabd5cd62ca", "balance": 398698260421331},
    {"publicKey": "199e03849fced30e7d48b41d60b0c5a4a7d9119b91fdab67f602acf06aa53c7c", "balance": 1058079578643409},
    {"publicKey": "40952a6b4a33a99c2dd1e60749362e3c14c75fa64442269a10b5e9c4e8164198", "balance": 6816783169034},
    {"publicKey": "6bd0a3fb812837da5417b66c38eb70e944bb81e33cef47b5b4ff4f5b4cc6516b", "balance": 85145429379895},
    {"publicKey": "ce5fb5250ab178f11a240875ea49ed7e3b79aae79fa15f7490e62b8125ece37f", "balance": 77644628837155},
    {"publicKey": "6405518aabb79aeadab0731abbb87ab1c3a04e4c36a63346f3bdd5f8c96eabc0", "balance": 60284969127267},
    {"publicKey": "562c4ed4590d762fa950250e7e2031420e6ae740066ffe377286705bec747f27", "balance": 2183966187174},
    {"publicKey": "9a5cc160e390d80e8d9d7d9494d4a7108ec27a5d73ca50dbe5306076accf0938", "balance": 620458884938173},
    {"publicKey": "3d471b3ecbebdef75e9abee319c97fc8c938e7d5af08d472252c2aaa2bf0592a", "balance": 252899766238137},
    {"publicKey": "4cee917aa1ce6b0a3cf81d622723d991477f52a71de82c1d0dedf6baee97264a", "balance": 35568131785087},
    {"publicKey": "2eaad136758ad93a7a3c6647bfc284fd4687763970cd85f731e42a543641b943", "balance": 3414540651368},
    {"publicKey": "036dd11dca47a8ab17a09b98fca1d753cf48b0768f65c099b3789fe1715aacb8", "balance": 819796486251342},
    {"publicKey": "e4af2af7edc1446e8c17261e630ec19bf240e7b5f31fd2a8e652bf6973281f44", "balance": 103070658556},
    {"publicKey": "ad602989000ff656b9472b691ecaeac29f227e704fdc885d14cb225be33dc365", "balance": 56686725947715},
    {"publicKey": "af4cd3f9df34afb36dd83a67a7d93bfadd32d8a96d95b29c91a6d2f8e6ff6bd7", "balance": 5599267932540},
    {"publicKey": "5848b07913adaa392fb19880e79edb7aa4a29e1416ce8f00caf462d5472a5982", "balance": 190313171072563},
    {"publicKey": "d4f22fe7b7b11c46febc702633831c60cc6eb6a9373adb95133a079128485f93", "balance": 7113626357017},
    {"publicKey": "b7e64c1bc5add0593397e75e827a8da323ea8c6e1fe6142a86092c9359117e50", "balance": 4623857132061416},
    {"publicKey": "9855c560701bbad120016535ad6444bcb56559927fef5aa97e500e0de165bb7a", "balance": 802995788775},
    {"publicKey": "cfe88c109909255fe5eef35e02304392556bae9496a2e2c7f6f88d2b9f3d4a3f", "balance": 602849691272674},
    {"publicKey": "d705d0275e0752f9fe08a692dc0dc83f6a7aa4fa6820246b489edd232123d070", "balance": 1653737273099},
    {"publicKey": "289f5deaf5b4abdd9fb231f8646243da789b569889534cf479bae2497291603e", "balance": 301470662212874},
    {"publicKey": "f5ca634fc979ce866f4d61b7dba38341d24014763ff73795281d721c2ba17396", "balance": 1422725287029256},
    {"publicKey": "d1826770688a18ada48b3f56b04662b7247880464c462085a78569cb3861154c", "balance": 26043106662979},
    {"publicKey": "ed3b80e88997426dd60425f1705bedb78da4cdfea9f048cf4838261fe6d82813", "balance": 151900922030014},
    {"publicKey": "cb8c6d8b1b6ae25fe697f9a33845c5792581d0d7d48d3efbf6c9288c3e39986f", "balance": 907288785365375},
    {"publicKey": "7c7fcea1e745094886a039bb2d5bcb4164cc0a70834cf0b55b4dc29c1812848a", "balance": 70279935887700},
    {"publicKey": "e4b00375c1bd9628799438e3e2f803d03861cd6438511afd10241c39d23f23f3", "balance": 32915593143427},
    {"publicKey": "8b609a4802015ab8ad04f161a9321eadc964bac3217a235cbb7ecb6c33a5c86a", "balance": 33156733019936},
    {"publicKey": "6e7604fd5a8eb47e77bff87669ff0d951c027e1a25c59aad9b544c1fecb072f3", "balance": 66313466039},
    {"publicKey": "beba807e7f8dbcb372bd6bf2751f5e974cb4ccff5cfa20166f55c383c66fc8ca", "balance": 1388142976101464},
    {"publicKey": "d93401c10c8c95af4f2a4a24cd5cc4d6bf26ad5c89a9e10d7a21ad3c08e4e8de", "balance": 723416012429},
    {"publicKey": "68441f5377b424d2bbeb26716da028ae10d8a91449425b7251d4d317ecfbc6ca", "balance": 238728477743},
    {"publicKey": "daa9c325aa584e6ad3cd304b2b61e3d0aa8eb5d8da90bddc92fa046297fa2de6", "balance": 711362635701756},
    {"publicKey": "b60ee30baa98f84d80dbf228312af520dbd9998b73643a4589685127ae92e1cf", "balance": 29180095316486},
    {"publicKey": "d325f5d399fb1cbbcb68305da1b8af1f93d96e73c47613a98e8423308b9d37c0", "balance": 533521976776317},
    {"publicKey": "d61084d23ca726910bb935884b4bfe38d2d05eb0ce8d4b9063bb9ab3eaa34614", "balance": 355681317850878},
    {"publicKey": "2e16902973ffb4d22f126eda389ebc8c022f334d30d110c23a4a9ed00ca1c803", "balance": 72341962952},
    {"publicKey": "4265b9814f033df8946c838dc687e31dc232fb4c099c2e09256574236629ff8f", "balance": 72341962952},
    {"publicKey": "b6ee09524e1e24767ca55921c7d60309807ae007146ea272f577960a5c574565", "balance": 954503973185851},
    {"publicKey": "a1a31bc9455a1aaaa3e2de6890ae40ce2fa4348d30e36348d389568afbf8ebe9", "balance": 249965595989241},
    {"publicKey": "c5849e458312e685f1d931877fc9ec6c738ea644db13bb024b8e272e1f2924c2", "balance": 723419629527},
    {"publicKey": "f514fc9ccce1ebe30725e5c4a32a5abb8f93b25483b2db815dfdd505f84960e6", "balance": 1430682887328311},
    {"publicKey": "87038da18de728fdaca4fffd1a5ea4a7817fc04c42548a721c895b25c35b5fd8", "balance": 1077895247995},
    {"publicKey": "58fad8b9a11731c190ebbeb4002325f2ea3bb4f6f9de17577722f3ea1ea864f3", "balance": 502873098472014},
    {"publicKey": "9f54f416f4d65d764045ef6aa02a5467ccfed0bb75fd562f14dfb6138674742e", "balance": 1422725271403512},
    {"publicKey": "38566e81c63c7d64b919917750f82f34e28f04b291d39ce370c0cb51bfb470d3", "balance": 10793420872545},
    {"publicKey": "428fbfb9ed320c16892ada24c88913b503fb596bdd84d934d42f3f2f5069e215", "balance": 759590611003},
    {"publicKey": "637b69c2dd9134d35b974b1fcfdf41755a74eff1c156a20295db6118532bd386", "balance": 86810355543265},
    {"publicKey": "2e87ba380d04779582ea70f0ba90191b19f1dc87f3d56f63c38d505513d840d3", "balance": 45972065940495},
    {"publicKey": "1f291145362ad06e4de7afceb80150f9278e38ab7367ef075b35233772da7d2d", "balance": 21702588885816},
    {"publicKey": "91d327c578f609903e46b4df9afc247badd1552add99c649d38ca5459d14fd18", "balance": 181866508684332},
    {"publicKey": "ab3bc0aa4e16020f8403a075ccf129c0efb7f2d164e85d2cb493c4b7cc6f067a", "balance": 34965282093815},
    {"publicKey": "95be348079606fdbaf334301edd80a63b1daf5bb8bc2577dbf03e87afed95a9a", "balance": 13986112837465},
    {"publicKey": "1cef5c8b97e811ad7d6287f7bfb7232ae51429dffb97c42cb0d79aeaeb16243b", "balance": 10851294442908},
    {"publicKey": "1fd7f2ad4514ccd2ed531713123691aa2fd0c1d16575e43a32f8e08f8fc39764", "balance": 6563911687424},
    {"publicKey": "120e48bb7e667058c81fe2554b43a10140c6bb79c2c6203ee6542d3bad101ed6", "balance": 9209131883881},
    {"publicKey": "96e6ac32f270959b2246da1e37061eb34cfe7da0a1b799009fe8529fbb4b7b55", "balance": 30202769532761},
    {"publicKey": "5e5f726d3121d7ab0dcbcc47988700a67860c2d074e0af275c8aa7d5c93f5ab0", "balance": 3720571068077},
    {"publicKey": "266bdd6bfc018f03abe4e3c568a188fe6c85e7b2f3206a3f2901956843a093d8", "balance": 124116347453071},
    {"publicKey": "ce45cdcc902e9750aa26f1eea380989b09b2353efaf0fe2f37aa9fb894e4a64d", "balance": 20092980210118},
    {"publicKey": "f9d56654f51d4637de56c4a9d71aab43a2c8c06e82a59db333e9c1304a879497", "balance": 84527016762133},
    {"publicKey": "fc9093e12bf90f2f90a9284943c95b787781f408eac146b179c2ff6f58bb069b", "balance": 1364912830000030},
    {"publicKey": "f20bf02310b827c3c5ad6ac72628fc7cd2462455391d3e28eefc392d8448eed7", "balance": 198534327380398},
    {"publicKey": "998b35fd7ca1a17171bac9780b01a714d119422ecc32c94a038eaf6063e36524", "balance": 510493118569640},
    {"publicKey": "613fab003bb75453a552bf45e09a9fad7e5134cfc16e6e043a708ca9d1dca48e", "balance": 78964363267301},
    {"publicKey": "552bef8060261f165c1f788807ea0ee4943d63a144dfd95e69721ecc97bb037e", "balance": 5834105377237232},
    {"publicKey": "dd3d1a8c03082f88e5b03252464521a18fa3902f571f9a452d034385a13169b5", "balance": 1824329865849086},
    {"publicKey": "e0dbbc10bff2b0defc1d071ba17e1348071804e433673c37f0af6bfa13851cf4", "balance": 414760587595600},
    {"publicKey": "602c8e9921911a07097cce404e20020235eae82183f2aede7fb84916af2cada6", "balance": 71136263570175},
    {"publicKey": "4251503ef62a7b0bbeb6529935e3b0a383849fb5b94085eeb665121a2faca242", "balance": 1601466635215540},
    {"publicKey": "6da12df114a1399493995ad9120adf9128de6de5347465cb8960c1411a3dc710", "balance": 14468392590544},
    {"publicKey": "c62a0fc14081ca508b36339b5a9b19964a83495224b160fb359b3df541133f3c", "balance": 180854907381},
    {"publicKey": "d09ba2293085e40a55038973be896315c674d8d2c3980e3307467cbf38e49b26", "balance": 940508214753265},
    {"publicKey": "e131d44012b3d46e7cf0652cd0d6cc08f1e54c9cfff53c703a233eb62ba90cd9", "balance": 3011588773470},
    {"publicKey": "f9ad11dd5b544d6123022f9f588fae6f427d982b1770a4bb9775a68fb199821c", "balance": 996521149828297},
    {"publicKey": "1be4185ecd4ced52eb04809ac6d098d73d364181dcf0c1f60b6c7c9ad26fd153", "balance": 28936785181088},
    {"publicKey": "c1c6df975744c90a0651c4f9e2efe14b1371194a94ab456c96330fc7f80d75e9", "balance": 1675840629406},
    {"publicKey": "1ce591623bde8c980eb80114b8cfbcd46df94c94e61dfeab1a0762efc61badc2", "balance": 7244531801285},
    {"publicKey": "9a70b230ab428856539cd91c5c7dbab5108ee55fd3a6912df478955b28d2bd16", "balance": 3195103363745176},
    {"publicKey": "8963811819111335117f04ae0f8dc7ecbfdd0b3fcc57b3ac320c1ec25da64c1d", "balance": 496402973637537},
    {"publicKey": "79b4a19d50dd2654eef1e598310bb41bbd150b0678a6dd1ad925526230d660ee", "balance": 36057642550510},
    {"publicKey": "901dca267d47d94582fbe24a75937284a4ab4212fdd8261b5e512675ee9e1b84", "balance": 15994808008846},
    {"publicKey": "3b57aedc1d606ba3e151102101178caafab731761c3cfc2402cee71e224723cd", "balance": 100917038319045},
    {"publicKey": "386ca0d68e5fc87adc0a0f3ce599b8d9bd8cff70202c35560e093a954416f895", "balance": 117647280421284},
    {"publicKey": "871561f6f1b024aea2f384b529c408517256ea45fdefede23690f3abaa274de0", "balance": 24111569017945},
    {"publicKey": "4c9dce7d8288bae955e12acfb7eee04b53981b768a821f0aaea42088aa138fb7", "balance": 2844383498853},
    {"publicKey": "900f55e35c4d0ae179ff318f23b792f16152a97a0329946271575740320ace4e", "balance": 711362635701756},
    {"publicKey": "ce0e0463f71b9da6858acc48b150bae18d3d5757043d0b8c8190899234042f43", "balance": 1157688433132393},
    {"publicKey": "bbf857386e31018eaff08e01448bf159dc5d3dd22c1d417afae73dd9573be5b4", "balance": 344830023407970},
    {"publicKey": "c9047a7d774f041b6cd21b6727ae0226a9a7464a282e1a1c431da196f6c61f64", "balance": 361709814763604},
    {"publicKey": "0b27c3d4fc9b234f68e4c4fe76dbe77a42c421d08430efcf813cef67af606136", "balance": 7234196295272},
    {"publicKey": "1a36bebbadaaeb9051a3f6e8cfa457a2aec32736f257a1a55accf518b0924ec7", "balance": 13258553834879},
    {"publicKey": "df380d9763946ce58ebc697ac5448c72c7141c5de05aaa08330e9f121bccdde4", "balance": 361709814763604},
    {"publicKey": "49521ed7e47b7c2d6881fa71f1b61b302f6947b7db3bf09a6c00c9f9d95419f5", "balance": 161777905218555},
    {"publicKey": "1c987cd8c74640543899286c468056a5543b7cc5237366aed7f6e12f2a689e41", "balance": 252762818556807},
    {"publicKey": "f7ffc82f16f422170d1d8571023c5e447c80ad2f0cf0aba6af1f468fad48f2e8", "balance": 97902789862682},
    {"publicKey": "3267f0da27131f6aa8df7dadaa1d50fd21f6c2c18099bdc7bd2865fe2c33ff3f", "balance": 1577054792369},
    {"publicKey": "084b989868b40056a1770c3087aa8017fe20ed4db2688af0a675876cd6e1764d", "balance": 96063181972770},
    {"publicKey": "d2612b8744a9b1338a0c7c783fd6a777bb20a61371ba3ce9442c6bf9fd3169e8", "balance": 1076593092662},
    {"publicKey": "e008bb2df97d3e57db7c94abff2ee8f095f8a3057caa5631df2f6aba7da3542b", "balance": 425148893415},
    {"publicKey": "ea4fda0b50d83fe654092214e8c2ecc581f89bc9a84e406bdd7e7f66812a95e0", "balance": 349761287463154},
    {"publicKey": "36aca003ec32f936385d45fa7f757f4101fd67a4abd35c027b42d8916ebce290", "balance": 1067043983870729},
    {"publicKey": "30527b00e1ec68a1ab4d50f6715eb3196afc5dd539614eb9e78cba477426b25e", "balance": 7233472875642},
    {"publicKey": "b320fa76f03fa9c710a069216eb74fbea264d14635b2a54db96aa1d803430ecb", "balance": 6510776665744},
    {"publicKey": "8eae0136c924974136e5f2d39ea64cb646f16dde410307899f672c43194814a9", "balance": 124565143728537},
    {"publicKey": "63826479121318ba864393ee523620002d6365d18dbe62aa314a003b816d8751", "balance": 7234196295272},
    {"publicKey": "40965a20e685e1870ef226c30936decf291454dc6c4193ce083d66f43a1a2f01", "balance": 723419629527},
    {"publicKey": "05785effe3a3a14f8487e1a000d40abb6d8b2c01167a93b94711b5917cd46719", "balance": 36170981476360},
    {"publicKey": "edb23357892a8da54f19344e440c51e461974c74bf0975e42927ec140222ecde", "balance": 36170981476360},
    {"publicKey": "02102cd613af4bb37935d594f6dbed28f993cf06e21a3697cae6c781bdf67a45", "balance": 604658097362603},
    {"publicKey": "b119c966baa282d0064e67fc3a5e5c6817f30267aafec7870b0846efc0bda31c", "balance": 1532861810621},
    {"publicKey": "2fb45244505e87a4f0a31ab2fa0bdf62fbd5581f24576eaa308784e8f31804bb", "balance": 12517570989585},
    {"publicKey": "2e55ba0b30ff20bb9ac74a566ef4827d56f7449a6f37afa01732f7fd04a3813a", "balance": 72341962952720},
    {"publicKey": "361590b0d6dc88b930f9a40db7aca41c62902bbb3465961df4af0f9f34861611", "balance": 135416920451198},
    {"publicKey": "f888aad312f4d568d70600b6e7bec2c17ddcbe2dd758b94598b790549ab68881", "balance": 1118889027002084},
    {"publicKey": "a75d2642a797034b18c486394f8213ee2a769e760fb3c05442dd5b3d7b1c7109", "balance": 3195103363745176},
    {"publicKey": "0b169833a52cbeaef57fb5f203873fc37453943f53583b5307ca203152e261dc", "balance": 7622431496391},
    {"publicKey": "8ab188d42a35645abb9ea8f78acc37b8aac6dc933663662dbdc9dff3d9bbf9ab", "balance": 7234196295272},
    {"publicKey": "4085e5499e61ed6e831a7da4b9dc5acb578674403dc7959945cd0f84d7183d00", "balance": 85053651542896},
    {"publicKey": "c83ae6d977cce057aa9b138a47c08b8c2722e86415faafeaa04aa7abe204df76", "balance": 19847740955708},
    {"publicKey": "26ed71323569eb4a371d591146e82e8d26c5d1da5b892a9294b5c94a9fa1193a", "balance": 72394763362},
    {"publicKey": "301194a9b90ccd66f378edbde4cdefe087afb2b7b1d60a31bb9283a0517d0517", "balance": 108512944429081},
    {"publicKey": "5cc51aef921805c20aee555f2093f3dd79880b63fb1c035dd5e07752e98a41fd", "balance": 6510776665744},
    {"publicKey": "e7ee7e7bc504d3cf0506ef566b31a942a0a25566aad2937c22c933f9cd5d0522", "balance": 14468392590544},
    {"publicKey": "619600859d742f857248ba92dcf64da876613b74a3a8676572fe2feedb54da4a", "balance": 27972225674991},
    {"publicKey": "a301374f87c8708cab883a7568dfc3359c42643b71076e704c2130226b77016e", "balance": 361709814763604},
    {"publicKey": "a5379b74864f660fba748ef43828ff7b598be27a74ac88f8af584da08675a149", "balance": 36170981476360},
    {"publicKey": "ef6c479d147f65c58d8e77c7bfbacc215bf52aed614c5435e3b01b1be507453c", "balance": 2411398765090699},
    {"publicKey": "6e116c1dc1f691e197eb484ca60487f85296e967aaffcf68b1db635cd3cbc988", "balance": 1895359429361},
    {"publicKey": "5c9d208f80083870623d22ff526808e3fbb085cb678d390e2915698e0b8ae06e", "balance": 8926998228365},
    {"publicKey": "67bcac030824fc2e7fdfd560d88f6fbfb789a20982a40aa3d86e4f9c9295cd8e", "balance": 7185968319970},
    {"publicKey": "40aad580706a9ee084d5aa3e3bdb453735d81cc74d4ba13416ec382ad85983cd", "balance": 1051852141332563},
    {"publicKey": "ed448fbb209f78b54c0897b98d14efafc52e669ec481e41b4b020379476bcfdb", "balance": 934151767608486},
    {"publicKey": "582c9fe51cafed2d392549e55d7609b15f94bebdb05304c50e4af9f5ae8a0cb5", "balance": 361709814763604},
    {"publicKey": "68ad244635ad57c50afd876506dfb2123b284f5e2d4da901baa1558afc206d1e", "balance": 5787357036217},
    {"publicKey": "bf9535d059d3315b4ab44c2b96ae638c4ee8a68273bd2af694cf7a9924bd219f", "balance": 72349197149016},
    {"publicKey": "b4797f115779a93b79d9a003ac4be1d3b4e2882210729aab657ad6a4b3bfe100", "balance": 1519181222007},
    {"publicKey": "690912512db7ea5c8fdaae1cce5ae319d9a9719afd00d7f96344ea77552854af", "balance": 238091868469874},
    {"publicKey": "3a77e554ef5868e3947687c0d0243ebb571652fa68f8edf5ccce79aa2d90503f", "balance": 206174594415},
    {"publicKey": "74e6a31e4d25aa26a691c9b3df6ff9f99f959491a6f6ff83d47f87659927627c", "balance": 7231692750449},
    {"publicKey": "3f91655876b3316b1e34fd6f26a9ce251191747238606fed628c6bf972e8c799", "balance": 210448798726378},
    {"publicKey": "4a037cb9c83dbcdc77499ddb7819210bbb885e97f3efdc3da56e7806c4c63a35", "balance": 21413221034005},
    {"publicKey": "fcc8ff3c53486772084a51939bde6f446f9f1ce7138688142eca31bab70f7d0d", "balance": 289241253375716},
    {"publicKey": "a8ad85a728a1e3606d7fc5d003509c764e3c22b7ca50e3a7b330e4a65044c4bf", "balance": 420537141565350},
    {"publicKey": "365049569ea2472bbf1b0407ea2d38141a76b947fc844ae5c4fa618b28d77668", "balance": 313428788688958},
    {"publicKey": "d7689b53b718f639baf17f9991ae8d89e1cb489ee5c177bde3ec2e86b98afce2", "balance": 177237809234},
    {"publicKey": "0b41a4c817c7da74c2a4df14635489149fee8a83fd37504d4ae590e6dcddba0e", "balance": 72341962952720},
    {"publicKey": "edbc2aee7485f99fc10eb84f24fa377d6954585ab8e230046d386451bd85e96e", "balance": 182784527082668},
    {"publicKey": "36f53665334d2145bed2ac1da8267486650615853d58887a6a68ad66364cb716", "balance": 64541087947652},
    {"publicKey": "b7f20cfa303de1a3bf9d1432fdcc8056bad5b897955afad3fe229baf63ee6164", "balance": 30148513060546},
    {"publicKey": "f2527754bb6fc47be7874af13f6b5c319311c63525c73667da7404a3e2945c9c", "balance": 178925788369729},
    {"publicKey": "8c9f943df77fa0b378d215fcecf6d823aca10cd7f5de8e1fd03ecc333bd42ccf", "balance": 464174898747875},
    {"publicKey": "25a4f4f9eb8ff65f4c04e01b64008d601f3b40a8d436482591ba1652127e039c", "balance": 29976821468472},
    {"publicKey": "1cdff8409cf28fd221d6d640c225d53c654f87511016b4abeab0c3cbcf2c3e02", "balance": 24994148200165},
    {"publicKey": "f7ffd6a31e2b6299ab10300453f3f933f3ed0879d963bb9265b115e90ecff627", "balance": 711362635701756},
    {"publicKey": "5846bcad3a489b195b5dc1782f34e0cc499b3cc48960ae0fa1cceb45e1c435d4", "balance": 4755881214450},
    {"publicKey": "5db5cbc9d74685557662f31bfcd7af24ba10daf1fe76a3768773382dbf9cccd2", "balance": 711362635701756},
    {"publicKey": "0a09174d3b7812b1bf930e8dfc22d1d2649badf39a183e3e03fbfdfc3e79033e", "balance": 20979169256289},
    {"publicKey": "c90aaae4ff3781d0e00a37cad9091ed4ae32371347cba26808ff574d631f06b9", "balance": 10779264801429},
    {"publicKey": "f1a2eac69ae9b3eb166421e6c0e6828e5e0322c4c4a5517d9b1c0a151c7ea1fc", "balance": 575922532030336},
    {"publicKey": "0b67381b5492fd9e7cacec3ec37dcd1a05d367aee0fe1d7e2e9afa790478ddfd", "balance": 26043106662979},
    {"publicKey": "55f498e34d37997ac710f910205e71117bb10294ff0c3cef052294a2cdbf0ff4", "balance": 6663714809623235},
    {"publicKey": "372f47c909c9508eff9ea235660507b7ffec0762d92f8d6f6808bf4847ee2ecf", "balance": 10901347847075},
    {"publicKey": "39dbfcf9fe433870c9df6f5975387e8535361195a69fedad5662ebe6f5f20e3b", "balance": 108919296098490},
    {"publicKey": "9d99200e501017016215d4558510cc7411c064e73c37c8c8912ce2202cbac7e3", "balance": 2049754058093751},
    {"publicKey": "f204725e36d3436d781bdf07b8a377b61ca168c231dd194e4660601aa57a4b55", "balance": 48284402032917},
    {"publicKey": "0cf620b7a6a20f3652c8a40da91a6f9e666acd444d68a00d74ae9c1fa3ec8767", "balance": 120569938254534},
    {"publicKey": "46568eafc5569b806ce382db5747f39826c44a7d50c22cbc4d734104a63a8362", "balance": 862954712675},
    {"publicKey": "45dc4b9e203b51e49904f10f68cce1ce3fe04b5b1b24f30b55d046cef6c55963", "balance": 72341962952720},
    {"publicKey": "4f9ec6f597652fc24347c21ecad6a2c514c9889acf55d02a00ae1e27923c105d", "balance": 711362635701756},
    {"publicKey": "c26e26f5975d3f22e077518ae9463aeb65afe31d53b0ff10412dc7f27b96c68c", "balance": 180854899424186},
    {"publicKey": "8e5615d8acab53e79b2b9447087e06227bf61e714bdf25d45726d765c022837f", "balance": 3617098147636},
    {"publicKey": "8bd10109f10de7acf973c9e651ef9ca50df00206bdae8d4fefa7cff29f442c71", "balance": 563399207475791},
    {"publicKey": "279f7dfea5359af167901bdcd80a071bfa8819953de85c3dbf25e17501c59ef1", "balance": 1202969095543108},
    {"publicKey": "bbd6a2eba9e2da6d98116608984eabbb991049e55a76262ffec9f4c3d0abe485", "balance": 400853561403372},
    {"publicKey": "672b0ccf2c26fe172c3e440e1e5810be168e5ce3231f55ad2b65776aff4adb6c", "balance": 362360892430},
    {"publicKey": "ded45e090eabd9f8ed7d4c7790c323c3d8bdf3a166cd4f95403210c33fa0fcc9", "balance": 6510770154968222},
    {"publicKey": "cde7f6a132697b3f7dc295fae24f87369d75fe85c2991da90c0b8607b3d64cbc", "balance": 85942251987832},
    {"publicKey": "dd059f0a754750f38d1e2d4f564acec66f56eb0132bfd466e791b74be83820eb", "balance": 72341962952},
    {"publicKey": "b1daeaf0b646433cb25fac6d8b34a6268977ec360b56eb16fc9a11eb62b7bd5d", "balance": 35134558771124},
    {"publicKey": "86bfd8a334a6d1aefb768ad1cb0a63ff2556dfb5285c7f19361f832f1c0e540e", "balance": 1157688433132393},
    {"publicKey": "a0d5b90feb4c034451889516e2f84ddcb016842b6e1dc2b708dfdc512b65b288", "balance": 340100064730184},
    {"publicKey": "f1e9135fca4849b45edc76cb495c071e99e6a6642f3f5ec4b1961093fb933185", "balance": 64278727762010},
    {"publicKey": "b50a0fc748fc2257ab136b4656a4c909fad1b07b8f2ec2083f5663a0424f98c6", "balance": 167594034779871},
    {"publicKey": "2a2e237391639eb733cbb627394e6c0ef5e367dfa7543e5a3f9c1c3c947e2bd3", "balance": 27203327064815},
    {"publicKey": "095275403d4ef881f132aed435f30a7bb2e721a1b50d3ebb38f4b17157a95e3c", "balance": 64755340727930},
    {"publicKey": "53440f9f8eb4851b9b3e2df05ff18f1af7379c31dda27d69a70ebaa5f131d1dc", "balance": 555593236395639},
    {"publicKey": "1103be1f1005134993074b56fdcd809576ec4a5402219c782a095f45472abd77", "balance": 178908908578374},
    {"publicKey": "8587f9b94307ab6a81ac4b1dcecba866750f82d0066f74443b1d5253b0af5ec8", "balance": 4479899055269},
    {"publicKey": "93e0279bbc7baa47b5848c541f3307c9d1558f0279792523888b20fbe171da7f", "balance": 3015534361280},
    {"publicKey": "13a1672675c6a461f45eb4a234d2bf2096366bfc5d4bb9b37bc414df8382e733", "balance": 8037192084047},
    {"publicKey": "c6b1c77d353546580f0f220eb81322954fe1ebf4c1ec64f72ab13b1a3c4163b8", "balance": 108512944429081},
    {"publicKey": "3a645b444f7995a46e2a51deadad1ce924adbd1606a86ff3f43f0f5c0dd948e0", "balance": 7357177632291},
    {"publicKey": "d67c739caf74109fa8a561a42c0801f73f819e05d4bfe1506e3da4da16f332f3", "balance": 144683925905441},
    {"publicKey": "155e11c57397e4975f4d6a1c298557e2f272f9a665e1b4be168d7cb03d586c14", "balance": 144683925905441},
    {"publicKey": "e98240c378f1095151b9e32a6e2497c88fe779c937d469863bb22de462284918", "balance": 1101471493721834},
    {"publicKey": "7a2e8f58d0ac0d22b7d563f27eccd6ec8f5a4dd8dc1fd7dc13e3a795f97fd236", "balance": 32805392219923},
    {"publicKey": "d8d85ccb14b8ec42c6927e53e0c6cbe493143d7d43bec1de48d5c154b6535db9", "balance": 1616262414358062},
    {"publicKey": "17c1eaabbdffcef8a61268e938688d0de7f53dae72208019e73d0f195e42e3c1", "balance": 55341601658831},
    {"publicKey": "3783c13e2e72f9c69512175fd384838c5ad786a3ce74041439cfa4f662858477", "balance": 16074384168094},
    {"publicKey": "636f3e8e15f30e09f8a29d6e2b4ef1864741d67fc1b21639079a0199cb407bea", "balance": 72341962952},
    {"publicKey": "11f54f3e1764f79162dc1681187f490a26cda389fdbc04e689b79f8ce39dc1f1", "balance": 7480870441725},
    {"publicKey": "207492621b5d23b161942a0db9fae2f6fabdd29f3c4a2ae2267d596aa6f0f49d", "balance": 52086213325959},
    {"publicKey": "d0c122ab04ddd8e300bc93110a49f40c47a73f426b8f5ee5e3962c655833a69f", "balance": 608436902211390},
    {"publicKey": "598cbb3b148d24f1d9b9cc26e16e098f2024ac63e4e1199f1d0ce0dbe586668e", "balance": 361709814763604},
    {"publicKey": "0997f0f8069647840bcee60524b7d3c55c6979ab3742b874f22dd616fdb3517b", "balance": 414965556490633},
    {"publicKey": "21dea3ef387bb20ae61d367e7aeadf0862604ad23d6f5bfb07d9ad1ca4e19d73", "balance": 687248647990},
    {"publicKey": "6a98f9e8f50cd2435536acedeb2825f1ea639e427d7cc2881f147a1c898e0039", "balance": 24392624778213},
    {"publicKey": "5f8564ec8687766f80745f83c125a8b5fb8cfaf03b0ebf2d3ce7f3113c8b5184", "balance": 710532475505},
    {"publicKey": "e6c45fdb2852b37032e4d38152af6b8db61df45b42438ebc10bf7f5c18701177", "balance": 95762673458664},
    {"publicKey": "31b95ed61055603e2273c163451bc0ecdf5a817f14867bc16a3eae6ba5cc5603", "balance": 2036379956092},
    {"publicKey": "625236776db85caf7724b260ccaa6d3103babc1fcba5129f9d26773107480fe2", "balance": 180927249344755},
    {"publicKey": "6d9082a4e04419dd42291b06e807704208c0d727e6e6d5f4773b901bd45452bf", "balance": 294721157069385},
    {"publicKey": "de9f81d1a5eca2fad03f649cd158d69986b1f5de04ebd7fb1bb0fcf4a7d45215", "balance": 72341962952720},
    {"publicKey": "9e07e9d18d965dc291cd86c2f3a27bcff872bf84be12d82183b460a55862ce5a", "balance": 72923836855096},
    {"publicKey": "daf03b86a7b570c92279addf72a98cf847287e44172220d045b17a2217fc54fa", "balance": 6510776665744},
    {"publicKey": "65229219767a8105b6783b8bc42ae0313949899d85f8c0500317a7b18b94aa59", "balance": 72341962952},
    {"publicKey": "1328cedf4c5a6fd5d77c068ad59c51ce0a5109e947960ba98b24eb255692b002", "balance": 3556813178508},
    {"publicKey": "609f49ccb6d71d5b4ba4cea7b0dc4fee4b197f9e72824e6ac7854d0803bd71bf", "balance": 6655460591650},
    {"publicKey": "84f3b563a8ea7d191fb8c0af202bf219149f39218cf295f889c440ecbea51366", "balance": 36111314552474},
    {"publicKey": "8484a52d781a32fe8b0aaec8a2686b873d5d3823ddf1dbed4a792371273f1c4d", "balance": 3520642197032},
    {"publicKey": "192715f978946eea0fc9dc3d35c058105bcc073a42c8704329fffb7baf77a246", "balance": 85526526840730}
]
    